module github.com/helixml/helix

go 1.22.2

require (
	cloud.google.com/go/storage v1.33.0
	github.com/Nerzal/gocloak/v13 v13.9.0
	github.com/avast/retry-go/v4 v4.5.1
	github.com/davecgh/go-spew v1.1.1
	github.com/doug-martin/goqu/v9 v9.19.0
	github.com/dustin/go-humanize v1.0.1
	github.com/getkin/kin-openapi v0.123.0
	github.com/getsentry/sentry-go v0.25.0
	github.com/go-git/go-git/v5 v5.12.0
	github.com/golang-jwt/jwt/v5 v5.0.0
	github.com/golang-migrate/migrate/v4 v4.16.2
	github.com/golang/mock v1.6.0
	github.com/google/go-github/v61 v61.0.0
	github.com/google/uuid v1.3.1
	github.com/gorilla/mux v1.8.1
	github.com/gorilla/websocket v1.5.1
	github.com/gptscript-ai/gptscript v0.5.0
	github.com/hashicorp/go-retryablehttp v0.7.4
	github.com/inhies/go-bytesize v0.0.0-20220417184213-4913239db9cf
	github.com/jinzhu/copier v0.4.0
	github.com/jmorganca/ollama v0.1.27
	github.com/joho/godotenv v1.5.1
	github.com/kelseyhightower/envconfig v1.4.0
	github.com/lib/pq v1.10.9
	github.com/lukemarsden/go-openai2 v0.0.0-20240202213643-0480a26e2aaf
	github.com/nats-io/nats-server/v2 v2.10.9
	github.com/nats-io/nats.go v1.32.0
	github.com/oklog/ulid/v2 v2.1.0
	github.com/rs/zerolog v1.31.0
	github.com/sourcegraph/conc v0.3.0
	github.com/spf13/cobra v1.8.0
	github.com/stripe/stripe-go/v76 v76.8.0
	github.com/swaggo/swag v1.16.3
	github.com/theckman/yacspin v0.13.12
	golang.org/x/build v0.0.0-20240223184303-90c925d5ec5f
	google.golang.org/api v0.147.0
	gopkg.in/rjz/githubhook.v0 v0.0.1
	gopkg.in/yaml.v2 v2.4.0
	gorm.io/driver/postgres v1.5.4
	gorm.io/gorm v1.25.6
	gotest.tools/v3 v3.5.1
)

require (
	dario.cat/mergo v1.0.0 // indirect
	github.com/AlecAivazis/survey/v2 v2.3.7 // indirect
	github.com/BurntSushi/locker v0.0.0-20171006230638-a6e239ea1c69 // indirect
	github.com/KyleBanks/depth v1.2.1 // indirect
	github.com/Microsoft/go-winio v0.6.1 // indirect
	github.com/ProtonMail/go-crypto v1.0.0 // indirect
	github.com/adrg/xdg v0.4.0 // indirect
	github.com/andybalholm/brotli v1.1.0 // indirect
	github.com/bodgit/plumbing v1.3.0 // indirect
	github.com/bodgit/sevenzip v1.5.1 // indirect
	github.com/bodgit/windows v1.0.1 // indirect
	github.com/cloudflare/circl v1.3.7 // indirect
	github.com/cyphar/filepath-securejoin v0.2.4 // indirect
	github.com/docker/cli v26.0.1+incompatible // indirect
	github.com/docker/docker v24.0.0+incompatible // indirect
	github.com/docker/docker-credential-helpers v0.8.1 // indirect
	github.com/dsnet/compress v0.0.1 // indirect
	github.com/emirpasic/gods v1.18.1 // indirect
	github.com/fatih/color v1.16.0 // indirect
	github.com/go-git/gcfg v1.5.1-0.20230307220236-3a3c6141e376 // indirect
	github.com/go-git/go-billy/v5 v5.5.0 // indirect
	github.com/go-openapi/jsonpointer v0.21.0 // indirect
	github.com/go-openapi/jsonreference v0.20.2 // indirect
	github.com/go-openapi/spec v0.20.4 // indirect
	github.com/go-openapi/swag v0.23.0 // indirect
	github.com/golang/snappy v0.0.4 // indirect
	github.com/google/go-querystring v1.1.0 // indirect
	github.com/google/shlex v0.0.0-20191202100458-e7afc7fbc510 // indirect
	github.com/gptscript-ai/chat-completion-client v0.0.0-20240404013040-49eb8f6affa1 // indirect
	github.com/hashicorp/golang-lru/v2 v2.0.7 // indirect
	github.com/invopop/yaml v0.3.1 // indirect
	github.com/jackc/pgpassfile v1.0.0 // indirect
	github.com/jackc/pgservicefile v0.0.0-20221227161230-091c0ba34f0a // indirect
	github.com/jackc/pgx/v5 v5.4.3 // indirect
	github.com/jaytaylor/html2text v0.0.0-20230321000545-74c2419ad056 // indirect
	github.com/jbenet/go-context v0.0.0-20150711004518-d14ea06fba99 // indirect
	github.com/jinzhu/inflection v1.0.0 // indirect
	github.com/jinzhu/now v1.1.5 // indirect
	github.com/jordan-wright/email v4.0.1-0.20210109023952-943e75fe5223+incompatible // indirect
	github.com/josharian/intern v1.0.0 // indirect
	github.com/kballard/go-shellquote v0.0.0-20180428030007-95032a82bc51 // indirect
	github.com/kevinburke/ssh_config v1.2.0 // indirect
	github.com/klauspost/compress v1.17.8 // indirect
	github.com/klauspost/pgzip v1.2.6 // indirect
	github.com/mailru/easyjson v0.7.7 // indirect
	github.com/mattn/go-runewidth v0.0.15 // indirect
	github.com/mgutz/ansi v0.0.0-20200706080929-d51e80ef957d // indirect
	github.com/mholt/archiver/v4 v4.0.0-alpha.8 // indirect
	github.com/minio/highwayhash v1.0.2 // indirect
	github.com/mohae/deepcopy v0.0.0-20170929034955-c48cc78d4826 // indirect
	github.com/nats-io/jwt/v2 v2.5.3 // indirect
	github.com/nats-io/nkeys v0.4.7 // indirect
	github.com/nats-io/nuid v1.0.1 // indirect
	github.com/nwaples/rardecode/v2 v2.0.0-beta.2 // indirect
	github.com/olekukonko/tablewriter v0.0.6-0.20230925090304-df64c4bbad77 // indirect
	github.com/opencontainers/image-spec v1.1.0-rc3 // indirect
	github.com/perimeterx/marshmallow v1.1.5 // indirect
	github.com/pierrec/lz4/v4 v4.1.21 // indirect
	github.com/pjbgf/sha1cd v0.3.0 // indirect
	github.com/rivo/uniseg v0.4.7 // indirect
	github.com/rjz/githubhook v0.1.0 // indirect
	github.com/samber/lo v1.39.0 // indirect
	github.com/sergi/go-diff v1.3.2-0.20230802210424-5b0b94c5c0d3 // indirect
	github.com/sirupsen/logrus v1.9.3 // indirect
	github.com/skeema/knownhosts v1.2.2 // indirect
	github.com/ssor/bom v0.0.0-20170718123548-6386211fdfcf // indirect
	github.com/therootcompany/xz v1.0.1 // indirect
	github.com/tidwall/gjson v1.17.1 // indirect
	github.com/tidwall/match v1.1.1 // indirect
	github.com/tidwall/pretty v1.2.1 // indirect
	github.com/ulikunitz/xz v0.5.12 // indirect
	github.com/xanzy/ssh-agent v0.3.3 // indirect
	go.uber.org/multierr v1.9.0 // indirect
	go4.org v0.0.0-20230225012048-214862532bf5 // indirect
	golang.org/x/exp v0.0.0-20240416160154-fe59bbe5cc7f // indirect
	golang.org/x/mod v0.17.0 // indirect
	golang.org/x/term v0.19.0 // indirect
	golang.org/x/time v0.5.0 // indirect
	gopkg.in/warnings.v0 v0.1.2 // indirect
)

require (
	github.com/json-iterator/go v1.1.12 // indirect
	github.com/mailgun/mailgun-go/v4 v4.9.1 // indirect
	github.com/modern-go/concurrent v0.0.0-20180306012644-bacd9c7ef1dd // indirect
	github.com/modern-go/reflect2 v1.0.2 // indirect
	github.com/nikoksr/notify v0.41.0
)

require (
	github.com/pmezard/go-difflib v1.0.0 // indirect
	github.com/stretchr/testify v1.9.0
)

require (
	cloud.google.com/go v0.110.8 // indirect
	cloud.google.com/go/compute v1.23.0 // indirect
	cloud.google.com/go/compute/metadata v0.2.3 // indirect
	cloud.google.com/go/iam v1.1.2 // indirect
	github.com/go-resty/resty/v2 v2.7.0 // indirect
	github.com/golang/groupcache v0.0.0-20210331224755-41bb18bfe9da // indirect
	github.com/golang/protobuf v1.5.3 // indirect
	github.com/google/go-cmp v0.6.0 // indirect
	github.com/google/s2a-go v0.1.7 // indirect
	github.com/googleapis/enterprise-certificate-proxy v0.3.1 // indirect
	github.com/googleapis/gax-go/v2 v2.12.0 // indirect
	github.com/hashicorp/errwrap v1.1.0 // indirect
	github.com/hashicorp/go-cleanhttp v0.5.2 // indirect
	github.com/hashicorp/go-multierror v1.1.1 // indirect
	github.com/inconshreveable/mousetrap v1.1.0 // indirect
	github.com/mattn/go-colorable v0.1.13 // indirect
	github.com/mattn/go-isatty v0.0.20 // indirect
	github.com/opentracing/opentracing-go v1.2.0 // indirect
	github.com/pkg/errors v0.9.1 // indirect
	github.com/puzpuzpuz/xsync/v3 v3.0.1
	github.com/segmentio/ksuid v1.0.4 // indirect
	github.com/spf13/pflag v1.0.5 // indirect
	go.opencensus.io v0.24.0 // indirect
	go.uber.org/atomic v1.10.0 // indirect
	golang.org/x/crypto v0.22.0
	golang.org/x/net v0.24.0 // indirect
	golang.org/x/oauth2 v0.17.0
	golang.org/x/sync v0.7.0 // indirect
	golang.org/x/sys v0.19.0 // indirect
	golang.org/x/text v0.14.0 // indirect
	golang.org/x/tools v0.20.0 // indirect
	golang.org/x/xerrors v0.0.0-20220907171357-04be3eba64a2 // indirect
	google.golang.org/appengine v1.6.8-0.20221117013220-504804fb50de // indirect
	google.golang.org/genproto v0.0.0-20231002182017-d307bd883b97 // indirect
	google.golang.org/genproto/googleapis/api v0.0.0-20231002182017-d307bd883b97 // indirect
	google.golang.org/genproto/googleapis/rpc v0.0.0-20231009173412-8bfb1ae86b6c // indirect
	google.golang.org/grpc v1.59.0 // indirect
	google.golang.org/protobuf v1.31.0 // indirect
	gopkg.in/yaml.v3 v3.0.1
)
